digraph STG {
	rankdir = LR;

	INIT[shape = point];
	s0[label = "s0"];
	s1[label = "s1"];
	s2[label = "s2"];
	s3[label = "s3"];
	s4[label = "s4"];
	s5[label = "s5"];
	s6[label = "s6"];
	s7[label = "s7"];
	s8[label = "s8"];
	s9[label = "s9"];
	s10[label = "s10"];
	s11[label = "s11"];
	s12[label = "s12"];
	s13[label = "s13"];
	s14[label = "s14"];

	INIT -> s0;
	s0 -> s1[label="0/0"];
	s0 -> s2[label="1/0"];
	s1 -> s3[label="0/0"];
	s1 -> s4[label="1/0"];
	s2 -> s5[label="0/0"];
	s2 -> s6[label="1/0"];
	s3 -> s7[label="0/0"];
	s3 -> s8[label="1/0"];
	s4 -> s9[label="0/0"];
	s4 -> s10[label="1/0"];
	s5 -> s11[label="0/0"];
	s5 -> s12[label="1/0"];
	s6 -> s13[label="0/0"];
	s6 -> s14[label="1/0"];
	s7 -> s0[label="0/0,1/0"];
	s8 -> s0[label="0/0,1/0"];
	s9 -> s0[label="0/0,1/0"];
	s10 -> s0[label="0/1,1/0"];
	s11 -> s0[label="0/0,1/0"];
	s12 -> s0[label="0/1,1/0"];
	s13 -> s0[label="0/0,1/0"];
	s14 -> s0[label="0/0,1/0"];
}
